EESchema Schematic File Version 4
LIBS:circuit-cache
EELAYER 26 0
EELAYER END
$Descr A4 11693 8268
encoding utf-8
Sheet 1 1
Title ""
Date ""
Rev ""
Comp ""
Comment1 ""
Comment2 ""
Comment3 ""
Comment4 ""
$EndDescr
$Comp
L MCU_Module:Arduino_UNO_R3 A1
U 1 1 5B4513E7
P 5700 3600
F 0 "A1" H 5700 4778 50  0000 C CNN
F 1 "Arduino_UNO_R3" H 5700 4687 50  0000 C CNN
F 2 "Module:Arduino_UNO_R3" H 5850 2550 50  0001 L CNN
F 3 "https://www.arduino.cc/en/Main/arduinoBoardUno" H 5500 4650 50  0001 C CNN
	1    5700 3600
	1    0    0    -1  
$EndComp
$Comp
L Display_Character:RC1602A U1
U 1 1 5B452381
P 3700 3400
F 0 "U1" H 3700 2522 50  0000 C CNN
F 1 "RC1602A" H 3700 2613 50  0000 C CNN
F 2 "Display:RC1602A" H 3800 2600 50  0001 C CNN
F 3 "http://www.raystar-optronics.com/down.php?ProID=18" H 3800 3300 50  0001 C CNN
	1    3700 3400
	-1   0    0    1   
$EndComp
Wire Wire Line
	4100 3800 4600 3800
$Comp
L Device:R_POT RV1
U 1 1 5B45393E
P 2950 3600
F 0 "RV1" H 2880 3646 50  0000 R CNN
F 1 "R_POT" H 2880 3555 50  0000 R CNN
F 2 "Potentiometer_SMD:Potentiometer_ACP_CA6-VSMD_Vertical" H 2950 3600 50  0001 C CNN
F 3 "~" H 2950 3600 50  0001 C CNN
	1    2950 3600
	1    0    0    -1  
$EndComp
Wire Wire Line
	3100 3600 3200 3600
Wire Wire Line
	3700 2200 3700 2700
Wire Wire Line
	3200 3100 3300 3100
NoConn ~ 6200 3700
NoConn ~ 6200 3800
NoConn ~ 6200 3900
NoConn ~ 6200 4000
NoConn ~ 6200 4100
NoConn ~ 5200 3600
NoConn ~ 5200 3700
NoConn ~ 5200 3800
NoConn ~ 5200 4000
NoConn ~ 5200 3000
NoConn ~ 5200 3100
NoConn ~ 6200 3000
NoConn ~ 6200 3200
NoConn ~ 6200 3400
NoConn ~ 5800 2600
NoConn ~ 5800 4700
Wire Wire Line
	4600 3800 4600 4550
NoConn ~ 5200 4300
NoConn ~ 6200 4300
NoConn ~ 6200 4400
NoConn ~ 4100 3300
NoConn ~ 4100 3400
NoConn ~ 4100 3500
NoConn ~ 4100 3600
$Comp
L Device:R R1
U 1 1 5B459309
P 3200 2550
F 0 "R1" H 3270 2596 50  0000 L CNN
F 1 "R" H 3270 2505 50  0000 L CNN
F 2 "Resistor_SMD:R_0805_2012Metric" V 3130 2550 50  0001 C CNN
F 3 "~" H 3200 2550 50  0001 C CNN
	1    3200 2550
	1    0    0    -1  
$EndComp
Wire Wire Line
	3200 2200 3200 2400
Wire Wire Line
	3200 2700 3200 2800
Text Label 4100 2900 0    50   ~ 0
LCD_DB7
Text Label 4100 3000 0    50   ~ 0
LCD_DB6
Text Label 4100 3100 0    50   ~ 0
LCD_DB5
Text Label 4100 3200 0    50   ~ 0
LCD_DB4
Text Label 4100 3700 0    50   ~ 0
LCD_E
Text Label 4100 3900 0    50   ~ 0
LCD_RS
Text Label 5200 3200 2    50   ~ 0
LCD_DB7
Text Label 5200 3300 2    50   ~ 0
LCD_DB6
Text Label 5200 3400 2    50   ~ 0
LCD_DB5
Text Label 5200 3500 2    50   ~ 0
LCD_DB4
Text Label 5200 4100 2    50   ~ 0
LCD_E
Text Label 5200 4200 2    50   ~ 0
LCD_RS
$Comp
L power:+5V #PWR0103
U 1 1 5B46533D
P 5600 2350
F 0 "#PWR0103" H 5600 2200 50  0001 C CNN
F 1 "+5V" H 5615 2523 50  0000 C CNN
F 2 "" H 5600 2350 50  0001 C CNN
F 3 "" H 5600 2350 50  0001 C CNN
	1    5600 2350
	1    0    0    -1  
$EndComp
$Comp
L power:GND #PWR03
U 1 1 5B4530EE
P 3700 2200
F 0 "#PWR03" H 3700 1950 50  0001 C CNN
F 1 "GND" H 3705 2027 50  0000 C CNN
F 2 "" H 3700 2200 50  0001 C CNN
F 3 "" H 3700 2200 50  0001 C CNN
	1    3700 2200
	-1   0    0    1   
$EndComp
$Comp
L power:+5V #PWR02
U 1 1 5B45495F
P 3200 2200
F 0 "#PWR02" H 3200 2050 50  0001 C CNN
F 1 "+5V" H 3215 2373 50  0000 C CNN
F 2 "" H 3200 2200 50  0001 C CNN
F 3 "" H 3200 2200 50  0001 C CNN
	1    3200 2200
	1    0    0    -1  
$EndComp
$Comp
L power:GND #PWR01
U 1 1 5B4547A2
P 2950 2850
F 0 "#PWR01" H 2950 2600 50  0001 C CNN
F 1 "GND" H 2955 2677 50  0000 C CNN
F 2 "" H 2950 2850 50  0001 C CNN
F 3 "" H 2950 2850 50  0001 C CNN
	1    2950 2850
	-1   0    0    1   
$EndComp
$Comp
L power:GND #PWR05
U 1 1 5B4533A1
P 4600 4550
F 0 "#PWR05" H 4600 4300 50  0001 C CNN
F 1 "GND" H 4605 4377 50  0000 C CNN
F 2 "" H 4600 4550 50  0001 C CNN
F 3 "" H 4600 4550 50  0001 C CNN
	1    4600 4550
	1    0    0    -1  
$EndComp
$Comp
L power:GND #PWR0101
U 1 1 5B467037
P 5700 4700
F 0 "#PWR0101" H 5700 4450 50  0001 C CNN
F 1 "GND" H 5705 4527 50  0000 C CNN
F 2 "" H 5700 4700 50  0001 C CNN
F 3 "" H 5700 4700 50  0001 C CNN
	1    5700 4700
	1    0    0    -1  
$EndComp
NoConn ~ 5900 2600
$Comp
L power:PWR_FLAG #FLG0101
U 1 1 5B467633
P 4850 1350
F 0 "#FLG0101" H 4850 1425 50  0001 C CNN
F 1 "PWR_FLAG" H 4850 1524 50  0000 C CNN
F 2 "" H 4850 1350 50  0001 C CNN
F 3 "~" H 4850 1350 50  0001 C CNN
	1    4850 1350
	1    0    0    -1  
$EndComp
$Comp
L power:PWR_FLAG #FLG0102
U 1 1 5B467875
P 5700 1350
F 0 "#FLG0102" H 5700 1425 50  0001 C CNN
F 1 "PWR_FLAG" H 5700 1524 50  0000 C CNN
F 2 "" H 5700 1350 50  0001 C CNN
F 3 "~" H 5700 1350 50  0001 C CNN
	1    5700 1350
	1    0    0    -1  
$EndComp
$Comp
L power:+5V #PWR0104
U 1 1 5B469BCD
P 2950 4350
F 0 "#PWR0104" H 2950 4200 50  0001 C CNN
F 1 "+5V" H 2965 4523 50  0000 C CNN
F 2 "" H 2950 4350 50  0001 C CNN
F 3 "" H 2950 4350 50  0001 C CNN
	1    2950 4350
	-1   0    0    1   
$EndComp
$Comp
L power:+5V #PWR0105
U 1 1 5B47355B
P 5250 1350
F 0 "#PWR0105" H 5250 1200 50  0001 C CNN
F 1 "+5V" H 5265 1523 50  0000 C CNN
F 2 "" H 5250 1350 50  0001 C CNN
F 3 "" H 5250 1350 50  0001 C CNN
	1    5250 1350
	1    0    0    -1  
$EndComp
Wire Wire Line
	5600 2350 5600 2600
Wire Wire Line
	4850 1350 4850 1450
Wire Wire Line
	4850 1450 5250 1450
Wire Wire Line
	5250 1450 5250 1350
$Comp
L power:GND #PWR0106
U 1 1 5B473AA1
P 6100 1350
F 0 "#PWR0106" H 6100 1100 50  0001 C CNN
F 1 "GND" H 6105 1177 50  0000 C CNN
F 2 "" H 6100 1350 50  0001 C CNN
F 3 "" H 6100 1350 50  0001 C CNN
	1    6100 1350
	-1   0    0    1   
$EndComp
Wire Wire Line
	5700 1350 5700 1450
Wire Wire Line
	5700 1450 6100 1450
Wire Wire Line
	6100 1450 6100 1350
$Comp
L power:PWR_FLAG #FLG0103
U 1 1 5B4741FC
P 3050 2400
F 0 "#FLG0103" H 3050 2475 50  0001 C CNN
F 1 "PWR_FLAG" H 3050 2574 50  0000 C CNN
F 2 "" H 3050 2400 50  0001 C CNN
F 3 "~" H 3050 2400 50  0001 C CNN
	1    3050 2400
	1    0    0    -1  
$EndComp
Wire Wire Line
	3050 2400 3050 2800
Wire Wire Line
	3050 2800 3200 2800
Connection ~ 3200 2800
Wire Wire Line
	3200 2800 3200 3100
$Comp
L power:PWR_FLAG #FLG0104
U 1 1 5B474560
P 3200 3600
F 0 "#FLG0104" H 3200 3675 50  0001 C CNN
F 1 "PWR_FLAG" H 3200 3774 50  0000 C CNN
F 2 "" H 3200 3600 50  0001 C CNN
F 3 "~" H 3200 3600 50  0001 C CNN
	1    3200 3600
	1    0    0    -1  
$EndComp
Connection ~ 3200 3600
Wire Wire Line
	3200 3600 3300 3600
Wire Wire Line
	3700 4100 3700 4200
NoConn ~ 5600 4700
Wire Wire Line
	2950 3750 2950 4350
$Comp
L power:+5V #PWR0102
U 1 1 5B4772C5
P 3700 4200
F 0 "#PWR0102" H 3700 4050 50  0001 C CNN
F 1 "+5V" H 3715 4373 50  0000 C CNN
F 2 "" H 3700 4200 50  0001 C CNN
F 3 "" H 3700 4200 50  0001 C CNN
	1    3700 4200
	-1   0    0    1   
$EndComp
Wire Wire Line
	2950 2850 2950 3450
$Comp
L power:GND #PWR0107
U 1 1 5B4772E6
P 3300 3200
F 0 "#PWR0107" H 3300 2950 50  0001 C CNN
F 1 "GND" H 3305 3027 50  0000 C CNN
F 2 "" H 3300 3200 50  0001 C CNN
F 3 "" H 3300 3200 50  0001 C CNN
	1    3300 3200
	0    1    1    0   
$EndComp
NoConn ~ 6200 3600
$Comp
L Sensor:DHT11 U2
U 1 1 5B4FD4B4
P 4800 2100
F 0 "U2" H 4570 2146 50  0000 R CNN
F 1 "DHT11" H 4570 2055 50  0000 R CNN
F 2 "" H 4950 2350 50  0001 C CNN
F 3 "http://akizukidenshi.com/download/ds/aosong/DHT11.pdf" H 4950 2350 50  0001 C CNN
	1    4800 2100
	1    0    0    -1  
$EndComp
$Comp
L power:GND #PWR0108
U 1 1 5B4FD796
P 4800 2550
F 0 "#PWR0108" H 4800 2300 50  0001 C CNN
F 1 "GND" H 4805 2377 50  0000 C CNN
F 2 "" H 4800 2550 50  0001 C CNN
F 3 "" H 4800 2550 50  0001 C CNN
	1    4800 2550
	0    -1   -1   0   
$EndComp
Wire Wire Line
	4700 2400 4700 2550
Wire Wire Line
	4700 2550 4800 2550
$Comp
L power:+5V #PWR0109
U 1 1 5B4FDAAD
P 4800 1650
F 0 "#PWR0109" H 4800 1500 50  0001 C CNN
F 1 "+5V" H 4815 1823 50  0000 C CNN
F 2 "" H 4800 1650 50  0001 C CNN
F 3 "" H 4800 1650 50  0001 C CNN
	1    4800 1650
	0    1    1    0   
$EndComp
Wire Wire Line
	4800 1650 4700 1650
Wire Wire Line
	4700 1650 4700 1800
Text Label 5200 3900 2    50   ~ 0
DHT11_IO
Text Label 5100 2100 0    50   ~ 0
DHT11_IO
$EndSCHEMATC
